2018-06-01 08:40:00,120 [main] INFO  grails.buildtestdata.DomainInstanceBuilder  - After ozone.owf.grails.domain.Intent.save() ozone.owf.grails.domain.Intent : 8, skipped because it already has a key and isn't assigned
2018-06-01 08:40:00,122 [main] INFO  grails.buildtestdata.DomainInstanceBuilder  - After ozone.owf.grails.domain.Intent.save() ozone.owf.grails.domain.Intent : 8, skipped because it already has a key and isn't assigned
2018-06-01 08:40:00,122 [main] INFO  grails.buildtestdata.DomainInstanceBuilder  - After ozone.owf.grails.domain.WidgetDefinition.save() Widget C: (149 - 0c5435cf-4021-4f2a-ba69-dde451d12551), skipped because it already has a key and isn't assigned
2018-06-01 08:40:00,123 [main] INFO  grails.buildtestdata.DomainInstanceBuilder  - After ozone.owf.grails.domain.WidgetDefinitionIntent.save() ozone.owf.grails.domain.WidgetDefinitionIntent : 8, skipped because it already has a key and isn't assigned
2018-06-01 08:40:00,167 [main] INFO  grails.buildtestdata.DomainInstanceBuilder  - After ozone.owf.grails.domain.WidgetDefinition.save() A: (150 - 5f1516e9-11d6-494d-95d5-692cedbce547), skipped because it already has a key and isn't assigned
2018-06-01 08:40:00,171 [main] INFO  grails.buildtestdata.DomainInstanceBuilder  - After ozone.owf.grails.domain.WidgetDefinition.save() D: (151 - 83f0e339-5f00-477c-a788-51e59ce7a9bb), skipped because it already has a key and isn't assigned
2018-06-01 08:40:00,199 [main] INFO  grails.buildtestdata.DomainInstanceBuilder  - After ozone.owf.grails.domain.WidgetDefinition.save() C: (152 - 2aec674e-e317-4c6e-8f5a-63e5bae9ba44), skipped because it already has a key and isn't assigned
2018-06-01 08:40:00,205 [main] INFO  grails.buildtestdata.DomainInstanceBuilder  - After ozone.owf.grails.domain.WidgetDefinition.save() AA: (153 - 73d9e362-1ab3-4f1c-a9e3-6811e8a5dfbd), skipped because it already has a key and isn't assigned
2018-06-01 08:40:00,215 [main] INFO  grails.buildtestdata.DomainInstanceBuilder  - After ozone.owf.grails.domain.WidgetDefinition.save() B: (154 - cf0b73d9-5a5d-4437-9644-fe71558aeabb), skipped because it already has a key and isn't assigned
2018-06-01 08:40:00,232 [main] INFO  grails.buildtestdata.DomainInstanceBuilder  - After ozone.owf.grails.domain.WidgetDefinition.save() BB: (155 - fb6404f9-fec8-415e-a1b3-3662cecb588e), skipped because it already has a key and isn't assigned
2018-06-01 08:40:00,366 [main] INFO  grails.buildtestdata.DomainInstanceBuilder  - After ozone.owf.grails.domain.WidgetDefinition.save() A: (157 - d77ccca4-9559-477e-949f-f5a5f449afe4), skipped because it already has a key and isn't assigned
2018-06-01 08:40:00,392 [main] INFO  grails.buildtestdata.DomainInstanceBuilder  - After ozone.owf.grails.domain.WidgetDefinition.save() D: (158 - 9d99610b-bc26-4bb9-bcb6-4625649417dd), skipped because it already has a key and isn't assigned
2018-06-01 08:40:00,397 [main] INFO  grails.buildtestdata.DomainInstanceBuilder  - After ozone.owf.grails.domain.WidgetDefinition.save() C: (159 - cbe6c6a7-4adc-4ef4-8325-114ed35fc7dd), skipped because it already has a key and isn't assigned
2018-06-01 08:40:00,416 [main] INFO  grails.buildtestdata.DomainInstanceBuilder  - After ozone.owf.grails.domain.WidgetDefinition.save() AA: (160 - cbc890b7-0573-421f-a6e0-bcdb84ee4f3e), skipped because it already has a key and isn't assigned
2018-06-01 08:40:00,420 [main] INFO  grails.buildtestdata.DomainInstanceBuilder  - After ozone.owf.grails.domain.WidgetDefinition.save() B: (161 - 402c6d5c-e3f5-4e3a-bd43-97ad6843937b), skipped because it already has a key and isn't assigned
2018-06-01 08:40:00,437 [main] INFO  grails.buildtestdata.DomainInstanceBuilder  - After ozone.owf.grails.domain.WidgetDefinition.save() BB: (162 - f115f312-3637-4a22-8af9-1eb1af8aabaa), skipped because it already has a key and isn't assigned
2018-06-01 08:40:00,495 [main] INFO  grails.buildtestdata.DomainInstanceBuilder  - After ozone.owf.grails.domain.WidgetType.save() ozone.owf.grails.domain.WidgetType : 8, skipped because it already has a key and isn't assigned
2018-06-01 08:40:00,517 [main] INFO  grails.buildtestdata.DomainInstanceBuilder  - After ozone.owf.grails.domain.WidgetDefinition.save() A: (163 - 4648c0c4-5df7-4e40-bb23-d0f80ab7ab1b), skipped because it already has a key and isn't assigned
2018-06-01 08:40:00,520 [main] INFO  grails.buildtestdata.DomainInstanceBuilder  - After ozone.owf.grails.domain.WidgetDefinition.save() D: (164 - 971d59e3-94f7-46cb-980b-3d916f4bed8f), skipped because it already has a key and isn't assigned
2018-06-01 08:40:00,524 [main] INFO  grails.buildtestdata.DomainInstanceBuilder  - After ozone.owf.grails.domain.WidgetDefinition.save() C: (165 - 1b1f9b27-a360-46f9-9fac-27ae1c8090e3), skipped because it already has a key and isn't assigned
2018-06-01 08:40:00,541 [main] INFO  grails.buildtestdata.DomainInstanceBuilder  - After ozone.owf.grails.domain.WidgetDefinition.save() AA: (166 - 90268f01-6cfe-4ec5-93c6-106379e87874), skipped because it already has a key and isn't assigned
2018-06-01 08:40:00,544 [main] INFO  grails.buildtestdata.DomainInstanceBuilder  - After ozone.owf.grails.domain.WidgetDefinition.save() B: (167 - d85a7e10-f156-498d-b0d5-c5eefbc55142), skipped because it already has a key and isn't assigned
2018-06-01 08:40:00,547 [main] INFO  grails.buildtestdata.DomainInstanceBuilder  - After ozone.owf.grails.domain.WidgetDefinition.save() BB: (168 - 942e7a15-2167-42d5-a55c-02e05d39bd06), skipped because it already has a key and isn't assigned
2018-06-01 08:40:00,634 [main] INFO  org.codehaus.groovy.grails.commons.spring.GrailsWebApplicationContext  - Closing org.codehaus.groovy.grails.commons.spring.GrailsWebApplicationContext@40bbcdbb: startup date [Fri Jun 01 08:39:08 EDT 2018]; parent: org.codehaus.groovy.grails.commons.spring.GrailsWebApplicationContext@145ac215
2018-06-01 08:40:00,656 [main] INFO  org.codehaus.groovy.grails.domain.GrailsDomainClassCleaner  - Clearing static property staticGormStaticApi in org.ozoneplatform.appconfig.server.domain.model.ApplicationConfiguration
2018-06-01 08:40:00,657 [main] INFO  org.codehaus.groovy.grails.domain.GrailsDomainClassCleaner  - Clearing static property instanceGormInstanceApi in org.ozoneplatform.appconfig.server.domain.model.ApplicationConfiguration
2018-06-01 08:40:00,657 [main] INFO  org.codehaus.groovy.grails.domain.GrailsDomainClassCleaner  - Clearing static property instanceGormValidationApi in org.ozoneplatform.appconfig.server.domain.model.ApplicationConfiguration
2018-06-01 08:40:00,657 [main] INFO  org.codehaus.groovy.grails.domain.GrailsDomainClassCleaner  - Clearing static property instanceGormValidationApi in ozone.owf.grails.domain.Dashboard
2018-06-01 08:40:00,657 [main] INFO  org.codehaus.groovy.grails.domain.GrailsDomainClassCleaner  - Clearing static property staticGormStaticApi in ozone.owf.grails.domain.Dashboard
2018-06-01 08:40:00,657 [main] INFO  org.codehaus.groovy.grails.domain.GrailsDomainClassCleaner  - Clearing static property instanceGormInstanceApi in ozone.owf.grails.domain.Dashboard
2018-06-01 08:40:00,657 [main] INFO  org.codehaus.groovy.grails.domain.GrailsDomainClassCleaner  - Clearing static property staticGormStaticApi in ozone.owf.grails.domain.DomainMapping
2018-06-01 08:40:00,657 [main] INFO  org.codehaus.groovy.grails.domain.GrailsDomainClassCleaner  - Clearing static property instanceGormInstanceApi in ozone.owf.grails.domain.DomainMapping
2018-06-01 08:40:00,657 [main] INFO  org.codehaus.groovy.grails.domain.GrailsDomainClassCleaner  - Clearing static property instanceGormValidationApi in ozone.owf.grails.domain.DomainMapping
2018-06-01 08:40:00,658 [main] INFO  org.codehaus.groovy.grails.domain.GrailsDomainClassCleaner  - Clearing static property instanceGormValidationApi in ozone.owf.grails.domain.Group
2018-06-01 08:40:00,658 [main] INFO  org.codehaus.groovy.grails.domain.GrailsDomainClassCleaner  - Clearing static property staticGormStaticApi in ozone.owf.grails.domain.Group
2018-06-01 08:40:00,658 [main] INFO  org.codehaus.groovy.grails.domain.GrailsDomainClassCleaner  - Clearing static property instanceGormInstanceApi in ozone.owf.grails.domain.Group
2018-06-01 08:40:00,658 [main] INFO  org.codehaus.groovy.grails.domain.GrailsDomainClassCleaner  - Clearing static property staticGormStaticApi in ozone.owf.grails.domain.Intent
